                                +=============+=============+=========+
                                |  ex. frag.  | int. frag.  |  share  |
+===============================+=============+=============+=========+
| contiguous-memory allocation  |    yes      |     yes     |  no     |
+===============================+=============+=============+=========+
| pure paging                   |    no       |    some     |  yes    |
+===============================+=============+=============+=========+
| pure segmentation             |    yes      | no  2^n     |  yes    |
+===============================+=============+=============+=========+
| paged segmentation            |    no       |    some     |  yes    |
+=============================================+=============+=========+
