#FIG 3.2  Produced by xfig version 3.2.5
Landscape
Center
Inches
A4      
100.00
Single
-2
1200 2
6 1425 1800 1725 2100
4 0 0 50 -1 16 14 0.0000 4 180 165 1425 2025 P\001
4 0 0 50 -1 16 14 0.0000 4 165 135 1575 2100 2\001
-6
6 2175 1800 2475 2100
4 0 0 50 -1 16 14 0.0000 4 180 165 2175 2025 P\001
4 0 0 50 -1 16 14 0.0000 4 165 135 2325 2100 3\001
-6
6 5400 1800 5700 2100
4 0 0 50 -1 16 14 0.0000 4 180 165 5400 2025 P\001
4 0 0 50 -1 16 14 0.0000 4 165 135 5550 2100 1\001
-6
2 2 0 1 0 7 50 -1 -1 0.000 0 0 -1 0 0 5
	 1200 1575 8400 1575 8400 2325 1200 2325 1200 1575
2 1 0 1 0 7 50 -1 -1 0.000 0 0 -1 0 0 2
	 1950 1575 1950 2325
2 1 0 1 0 7 50 -1 -1 0.000 0 0 -1 0 0 2
	 2700 1575 2700 2325
4 1 0 50 -1 16 14 0.0000 4 165 135 1200 2625 0\001
4 1 0 50 -1 16 14 0.0000 4 165 270 8400 2625 30\001
4 1 0 50 -1 16 14 0.0000 4 165 135 1950 2625 3\001
4 1 0 50 -1 16 14 0.0000 4 165 135 2700 2625 6\001
