#FIG 3.2  Produced by xfig version 3.2.5
Landscape
Center
Inches
A4      
100.00
Single
-2
1200 2
6 3975 1800 4275 2100
4 0 0 50 -1 16 14 0.0000 4 180 165 3975 2025 P\001
4 0 0 50 -1 16 14 0.0000 4 165 135 4125 2100 2\001
-6
6 5925 1800 6225 2100
4 0 0 50 -1 16 14 0.0000 4 180 165 5925 2025 P\001
4 0 0 50 -1 16 14 0.0000 4 165 135 6075 2100 3\001
-6
6 1650 1800 1950 2100
4 0 0 50 -1 16 14 0.0000 4 180 165 1650 2025 P\001
4 0 0 50 -1 16 14 0.0000 4 165 135 1800 2100 1\001
-6
6 6525 1800 6825 2100
4 0 0 50 -1 16 14 0.0000 4 180 165 6525 2025 P\001
4 0 0 50 -1 16 14 0.0000 4 165 135 6675 2100 4\001
-6
6 7575 1800 7875 2100
4 0 0 50 -1 16 14 0.0000 4 180 165 7575 2025 P\001
4 0 0 50 -1 16 14 0.0000 4 165 135 7725 2100 5\001
-6
2 2 0 1 0 7 50 -1 -1 0.000 0 0 -1 0 0 5
	 1200 1575 8400 1575 8400 2325 1200 2325 1200 1575
2 1 0 1 0 7 50 -1 -1 0.000 0 0 -1 0 0 2
	 2400 1575 2400 2325
2 1 0 1 0 7 50 -1 -1 0.000 0 0 -1 0 0 2
	 5850 1575 5850 2325
2 1 0 1 0 7 50 -1 -1 0.000 0 0 -1 0 0 2
	 7050 1575 7050 2325
2 1 0 1 0 7 50 -1 -1 0.000 0 0 -1 0 0 2
	 6300 1575 6300 2325
4 1 0 50 -1 16 14 0.0000 4 165 135 1200 2625 0\001
4 1 0 50 -1 16 14 0.0000 4 165 270 8400 2625 61\001
4 1 0 50 -1 16 14 0.0000 4 165 270 7050 2625 49\001
4 1 0 50 -1 16 14 0.0000 4 165 270 6300 2625 42\001
4 1 0 50 -1 16 14 0.0000 4 165 270 5850 2625 39\001
4 1 0 50 -1 16 14 0.0000 4 165 270 2400 2625 10\001
