#FIG 3.2  Produced by xfig version 3.2.5
Landscape
Center
Inches
A4      
100.00
Single
-2
1200 2
2 2 0 1 0 7 50 -1 -1 0.000 0 0 -1 0 0 5
	 1200 1575 8400 1575 8400 2325 1200 2325 1200 1575
2 1 0 1 0 7 50 -1 -1 0.000 0 0 -1 0 0 2
	 6900 1575 6900 2325
2 1 0 1 0 7 50 -1 -1 0.000 0 0 -1 0 0 2
	 7650 1575 7650 2325
4 1 0 50 -1 16 14 0.0000 4 165 135 1200 2625 0\001
4 1 0 50 -1 16 14 0.0000 4 165 270 6900 2625 24\001
4 1 0 50 -1 16 14 0.0000 4 165 270 7650 2625 27\001
4 1 0 50 -1 16 14 0.0000 4 165 270 8400 2625 30\001
4 0 0 50 -1 16 14 0.0000 4 180 165 7125 2025 P\001
4 0 0 50 -1 16 14 0.0000 4 165 135 7275 2100 2\001
4 0 0 50 -1 16 14 0.0000 4 180 165 7875 2025 P\001
4 0 0 50 -1 16 14 0.0000 4 165 135 8025 2100 3\001
4 0 0 50 -1 16 14 0.0000 4 180 165 3900 2025 P\001
4 0 0 50 -1 16 14 0.0000 4 165 135 4050 2100 1\001
