%!PS-Adobe-2.0 EPSF-2.0
%%Title: osc8thedp189fcfsgantt1.fig
%%Creator: fig2dev Version 3.2 Patchlevel 4
%%CreationDate: Mon Dec 17 17:31:33 2012
%%For: sperugin@a145.cps.udayton.edu (Saverio Perugini)
%%BoundingBox: 0 0 444 64
%%Magnification: 1.0000
%%EndComments
/$F2psDict 200 dict def
$F2psDict begin
$F2psDict /mtrx matrix put
/col-1 {0 setgray} bind def
/col0 {0.000 0.000 0.000 srgb} bind def
/col1 {0.000 0.000 1.000 srgb} bind def
/col2 {0.000 1.000 0.000 srgb} bind def
/col3 {0.000 1.000 1.000 srgb} bind def
/col4 {1.000 0.000 0.000 srgb} bind def
/col5 {1.000 0.000 1.000 srgb} bind def
/col6 {1.000 1.000 0.000 srgb} bind def
/col7 {1.000 1.000 1.000 srgb} bind def
/col8 {0.000 0.000 0.560 srgb} bind def
/col9 {0.000 0.000 0.690 srgb} bind def
/col10 {0.000 0.000 0.820 srgb} bind def
/col11 {0.530 0.810 1.000 srgb} bind def
/col12 {0.000 0.560 0.000 srgb} bind def
/col13 {0.000 0.690 0.000 srgb} bind def
/col14 {0.000 0.820 0.000 srgb} bind def
/col15 {0.000 0.560 0.560 srgb} bind def
/col16 {0.000 0.690 0.690 srgb} bind def
/col17 {0.000 0.820 0.820 srgb} bind def
/col18 {0.560 0.000 0.000 srgb} bind def
/col19 {0.690 0.000 0.000 srgb} bind def
/col20 {0.820 0.000 0.000 srgb} bind def
/col21 {0.560 0.000 0.560 srgb} bind def
/col22 {0.690 0.000 0.690 srgb} bind def
/col23 {0.820 0.000 0.820 srgb} bind def
/col24 {0.500 0.190 0.000 srgb} bind def
/col25 {0.630 0.250 0.000 srgb} bind def
/col26 {0.750 0.380 0.000 srgb} bind def
/col27 {1.000 0.500 0.500 srgb} bind def
/col28 {1.000 0.630 0.630 srgb} bind def
/col29 {1.000 0.750 0.750 srgb} bind def
/col30 {1.000 0.880 0.880 srgb} bind def
/col31 {1.000 0.840 0.000 srgb} bind def

end
save
newpath 0 64 moveto 0 0 lineto 444 0 lineto 444 64 lineto closepath clip newpath
-68.3 157.5 translate
1 -1 scale

/cp {closepath} bind def
/ef {eofill} bind def
/gr {grestore} bind def
/gs {gsave} bind def
/sa {save} bind def
/rs {restore} bind def
/l {lineto} bind def
/m {moveto} bind def
/rm {rmoveto} bind def
/n {newpath} bind def
/s {stroke} bind def
/sh {show} bind def
/slc {setlinecap} bind def
/slj {setlinejoin} bind def
/slw {setlinewidth} bind def
/srgb {setrgbcolor} bind def
/rot {rotate} bind def
/sc {scale} bind def
/sd {setdash} bind def
/ff {findfont} bind def
/sf {setfont} bind def
/scf {scalefont} bind def
/sw {stringwidth} bind def
/tr {translate} bind def
/tnt {dup dup currentrgbcolor
  4 -2 roll dup 1 exch sub 3 -1 roll mul add
  4 -2 roll dup 1 exch sub 3 -1 roll mul add
  4 -2 roll dup 1 exch sub 3 -1 roll mul add srgb}
  bind def
/shd {dup dup currentrgbcolor 4 -2 roll mul 4 -2 roll mul
  4 -2 roll mul srgb} bind def
/$F2psBegin {$F2psDict begin /$F2psEnteredState save def} def
/$F2psEnd {$F2psEnteredState restore end} def

$F2psBegin
10 setmiterlimit
0 slj 0 slc
 0.06000 0.06000 sc
%
% Fig objects follow
%
% 
% here starts figure with depth 50
/Helvetica ff 210.00 scf sf
4050 2100 m
gs 1 -1 sc (1) col0 sh gr
% Polyline
7.500 slw
n 6900 1575 m
 6900 2325 l gs col0 s gr 
% Polyline
n 7650 1575 m
 7650 2325 l gs col0 s gr 
/Helvetica ff 210.00 scf sf
1200 2625 m
gs 1 -1 sc (0) dup sw pop 2 div neg 0 rm  col0 sh gr
/Helvetica ff 210.00 scf sf
6900 2625 m
gs 1 -1 sc (24) dup sw pop 2 div neg 0 rm  col0 sh gr
/Helvetica ff 210.00 scf sf
7650 2625 m
gs 1 -1 sc (27) dup sw pop 2 div neg 0 rm  col0 sh gr
/Helvetica ff 210.00 scf sf
8400 2625 m
gs 1 -1 sc (30) dup sw pop 2 div neg 0 rm  col0 sh gr
/Helvetica ff 210.00 scf sf
7125 2025 m
gs 1 -1 sc (P) col0 sh gr
/Helvetica ff 210.00 scf sf
7275 2100 m
gs 1 -1 sc (2) col0 sh gr
/Helvetica ff 210.00 scf sf
7875 2025 m
gs 1 -1 sc (P) col0 sh gr
/Helvetica ff 210.00 scf sf
8025 2100 m
gs 1 -1 sc (3) col0 sh gr
/Helvetica ff 210.00 scf sf
3900 2025 m
gs 1 -1 sc (P) col0 sh gr
% Polyline
n 1200 1575 m 8400 1575 l 8400 2325 l 1200 2325 l
 cp gs col0 s gr 
% here ends figure;
$F2psEnd
rs
showpage
